<?xml version="1.0" standalone="no"?>
<!DOCTYPE svg PUBLIC "-//W3C//DTD SVG 20010904//EN"
 "http://www.w3.org/TR/2001/REC-SVG-20010904/DTD/svg10.dtd">
<svg version="1.0" xmlns="http://www.w3.org/2000/svg"
 width="300.000000pt" height="300.000000pt" viewBox="0 0 300.000000 300.000000"
 preserveAspectRatio="xMidYMid meet">
<metadata>
Created by potrace 1.11, written by Peter Selinger 2001-2013
</metadata>
<g transform="translate(0.000000,300.000000) scale(0.100000,-0.100000)"
fill="#000000" stroke="none">
<path d="M497 2013 c-5 -9 -13 -46 -22 -103 -12 -72 -24 -113 -35 -120 -6 -3
-44 -6 -85 -5 l-75 1 0 -28 0 -28 81 0 c79 0 81 -1 75 -22 -3 -13 -13 -66 -23
-118 -9 -52 -20 -97 -25 -101 -4 -3 -39 -5 -78 -4 l-70 1 0 -28 0 -28 70 0
c39 0 70 -3 70 -8 0 -4 -9 -54 -20 -112 -11 -58 -20 -106 -20 -107 0 -9 60 -1
61 7 1 6 2 13 3 18 1 4 10 51 20 105 l18 97 90 0 c49 0 87 -3 85 -7 -3 -5 -8
-26 -11 -48 -13 -78 -17 -100 -26 -132 -9 -36 -6 -40 30 -39 24 1 26 6 45 111
l20 110 78 3 c77 3 77 3 77 31 0 28 0 28 -66 27 -36 -1 -67 1 -70 5 -2 4 6 59
18 123 l22 116 67 0 c57 0 67 3 72 19 8 31 -5 38 -66 36 l-59 -2 5 41 c5 36
15 91 33 174 4 19 0 22 -25 22 -34 0 -32 4 -57 -130 -9 -52 -21 -98 -26 -101
-4 -3 -43 -5 -86 -4 l-77 1 3 30 c2 16 10 60 18 97 20 96 19 107 -10 107 -14
0 -27 -3 -29 -7z m173 -291 c0 -16 -40 -223 -44 -230 -7 -12 -171 -6 -169 6 1
5 5 23 8 39 2 16 12 65 20 109 8 43 15 80 15 82 0 1 38 2 85 2 47 0 85 -4 85
-8z"/>
<path d="M1135 1797 c-65 -31 -102 -69 -134 -137 -23 -48 -26 -68 -26 -155 1
-82 5 -109 24 -152 47 -106 156 -171 271 -160 165 15 261 149 247 346 -12 172
-105 272 -262 279 -57 2 -79 -1 -120 -21z m192 -56 c82 -38 130 -142 121 -266
-12 -154 -121 -250 -247 -216 -65 17 -100 47 -129 109 -28 62 -35 141 -20 217
27 137 156 210 275 156z"/>
<path d="M1814 1797 c-28 -14 -60 -36 -71 -51 -12 -14 -23 -26 -25 -26 -2 0
-4 20 -3 45 2 45 2 45 -32 45 -27 0 -33 -4 -34 -22 -1 -29 -1 -489 0 -546 1
-42 1 -43 36 -40 l35 2 0 215 0 216 28 40 c76 109 240 112 278 5 8 -24 13
-106 13 -257 l1 -223 36 0 35 0 -3 248 c-3 238 -4 249 -26 288 -32 55 -71 76
-151 81 -55 3 -75 0 -117 -20z"/>
<path d="M2411 1799 c-50 -22 -109 -82 -132 -133 -56 -128 -36 -300 45 -388
96 -104 268 -116 370 -27 25 23 46 44 46 47 0 4 -9 13 -20 20 -17 10 -26 8
-64 -22 -108 -82 -248 -48 -310 75 -14 29 -26 70 -26 91 l0 38 215 0 215 0 1
28 c5 99 -19 170 -75 226 -66 66 -177 85 -265 45z m173 -59 c56 -28 93 -89 95
-152 l1 -28 -180 0 c-111 0 -180 4 -180 10 0 18 33 95 53 124 24 34 89 65 137
66 20 0 53 -9 74 -20z"/>
</g>
</svg>
